<?xml version="1.0" encoding="utf-8"?>
<!-- Generator: Adobe Illustrator 25.4.1, SVG Export Plug-In . SVG Version: 6.00 Build 0)  -->
<svg version="1.1" id="Camada_1" xmlns="http://www.w3.org/2000/svg" xmlns:xlink="http://www.w3.org/1999/xlink" x="0px" y="0px"
	 viewBox="0 0 3000 3000" style="enable-background:new 0 0 3000 3000;" xml:space="preserve">
<g>
	<path d="M2238.83,957.06c-85.78-161.78-205.09-320.6-354.63-472.03c-132.42-134.1-264.7-237.63-352.35-300.87
		c-10.78-7.78-21.15-15.14-31.07-22.09c21.59-14.61,28.55-43.63,15.33-66.57c-13.83-24.02-44.52-32.28-68.53-18.44
		c-1.21,0.7-15.01,8.68-38.66,23.64c-23.65-14.96-37.45-22.94-38.66-23.64c-24.01-13.83-54.68-5.58-68.52,18.43
		c-13.22,22.94-6.27,51.97,15.32,66.59c-9.92,6.95-20.29,14.32-31.07,22.1c-87.65,63.24-219.92,166.77-352.35,300.87
		C784.1,636.46,664.78,795.27,579,957.06c-108.24,204.15-163.12,413.53-163.12,622.34c0,589.53,150.02,798.51,156.41,807.11
		c9.53,12.84,24.52,20.28,40.3,20.28c1.88,0,3.76-0.11,5.65-0.32c84-9.51,170.36-39.91,256.68-90.35
		c67.53-39.46,135.3-91.29,201.44-154.05c111.76-106.05,180.14-206.31,182.99-210.53c15.54-22.94,9.54-54.11-13.39-69.66
		c-22.93-15.55-54.13-9.57-69.69,13.34c-0.65,0.96-66.19,96.8-170.51,195.47c-87.42,82.68-219.8,183.51-367.18,211.26
		c-13.16-25.22-33.5-70.35-53.7-139.53c-31.3-107.15-68.61-295.29-68.61-583.04c0-436.27,264.86-796.61,487.04-1022.07
		c154.92-157.2,311.37-272.73,405.62-336.52c94.25,63.79,250.71,179.33,405.62,336.52c222.19,225.46,487.04,585.8,487.04,1022.07
		c0,287.76-37.31,475.89-68.61,583.04c-20.21,69.17-40.54,114.31-53.7,139.53c-147.38-27.75-279.76-128.58-367.18-211.26
		c-104.33-98.67-169.86-194.51-170.51-195.47c-15.55-22.93-46.74-28.91-69.68-13.38c-22.95,15.54-28.95,46.75-13.4,69.69
		c2.86,4.22,71.23,104.47,182.99,210.53c66.14,62.76,133.91,114.59,201.44,154.05c86.32,50.44,172.68,80.84,256.68,90.35
		c1.89,0.21,3.78,0.32,5.65,0.32c15.77,0,30.77-7.44,40.3-20.28c6.39-8.61,156.41-217.58,156.41-807.11
		C2401.95,1370.59,2347.07,1161.2,2238.83,957.06z"/>
	<path d="M1402.55,724.96c27.72,0,50.18-22.47,50.18-50.18V337.14c0-27.72-22.47-50.18-50.18-50.18s-50.18,22.47-50.18,50.18v337.64
		C1352.36,702.49,1374.83,724.96,1402.55,724.96z"/>
	<path d="M1580.92,2636.38h-128.19v-1069.2c169.73,119.3,370.71,226.49,598.9,319.48c-1.2,6.22-2.43,12.39-3.71,18.49
		c-5.67,27.13,11.73,53.72,38.87,59.39c3.46,0.72,6.91,1.07,10.31,1.07c23.26,0,44.13-16.27,49.07-39.93
		c0.12-0.58,0.24-1.16,0.36-1.74c7.35,2.78,14.71,5.55,22.12,8.31c5.76,2.14,11.67,3.16,17.48,3.16c20.37,0,39.53-12.5,47.05-32.71
		c9.66-25.98-3.57-54.87-29.55-64.53c-13.46-5.01-26.77-10.04-39.95-15.09c11.84-87.22,17.83-183.42,17.83-287.32
		c0-154.32-38.33-309.18-113.94-460.27C2006.7,953.83,1921.43,834,1814.11,719.3c-18.94-20.24-50.7-21.3-70.93-2.36
		c-20.24,18.94-21.3,50.69-2.36,70.93c225.82,241.36,340.31,492.98,340.31,747.86c0,89.57-4.61,172.83-13.73,248.88
		c-263.1-109.27-463.11-228.04-614.67-342.22V814.93c0-27.72-22.47-50.18-50.18-50.18s-50.18,22.47-50.18,50.18v546.74
		c-96.55-83.03-168.04-161.63-220.54-229.93c-77.96-101.41-122.37-190.22-146.87-251.11c25.16-31.08,52.12-62.01,80.9-92.77
		c18.94-20.24,17.88-52-2.36-70.93c-20.24-18.94-52-17.88-70.93,2.36c-14.49,15.49-28.56,31.07-42.24,46.73
		c-0.84-4.85-1.15-7.43-1.16-7.53l0.03,0.24l-99.82,10.46c0.33,3.17,4.24,37.36,22.42,93.64c-52.39,69.8-96.78,140.9-132.67,212.63
		c-75.6,151.09-113.94,305.95-113.94,460.27c0,146.49,11.89,277.68,35.33,389.93c4.94,23.67,25.81,39.93,49.07,39.93
		c3.4,0,6.85-0.35,10.31-1.07c27.13-5.67,44.53-32.25,38.86-59.39c-22.04-105.52-33.21-229.81-33.21-369.41
		c0-190.39,63.9-378.96,190.35-562.79c29.18,61.45,70.91,133.69,130.53,212.34c81.95,108.12,184.59,211.1,305.95,307.11v963.36
		c-108.67,20.58-191.12,116.25-191.12,230.82c0,125.78,99.37,228.79,223.72,234.66c5.47,2.05,11.39,3.17,17.58,3.17
		c7.38,0,14.38-1.61,20.69-4.47c116.84-13.47,207.87-112.98,207.87-233.36C1631.11,2658.85,1608.64,2636.38,1580.92,2636.38z
		 M1261.61,2686.56c0-58.86,38-109.02,90.75-127.23v102.76c-4.05,7.24-6.37,15.58-6.37,24.47c0,8.89,2.32,17.23,6.37,24.47v102.76
		C1299.61,2795.58,1261.61,2745.43,1261.61,2686.56z M1452.73,2808.63v-71.88h68.3C1508.23,2768.49,1483.64,2794.25,1452.73,2808.63
		z"/>
</g>
</svg>
